…
The exact path where we will get the data, is determined by the string
‘race/tour-de-france/’ + the year (up until year 2000) of the Tour de
France edtion:

    tdf_editions <- function(start_year, stages_overview_path) {
      years <- start_year:year(today())
      
      tibble(
        year = start_year:year(today()),
        so_path = str_glue("{stages_overview_path}{year}"))
    }

    df_tdf_editions <- tdf_editions(start_year, stages_overview_path)

    ## # A tibble: 25 × 2
    ##     year so_path                 
    ##    <int> <glue>                  
    ##  1  2000 race/tour-de-france/2000
    ##  2  2001 race/tour-de-france/2001
    ##  3  2002 race/tour-de-france/2002
    ##  4  2003 race/tour-de-france/2003
    ##  5  2004 race/tour-de-france/2004
    ##  6  2005 race/tour-de-france/2005
    ##  7  2006 race/tour-de-france/2006
    ##  8  2007 race/tour-de-france/2007
    ##  9  2008 race/tour-de-france/2008
    ## 10  2009 race/tour-de-france/2009
    ## # ℹ 15 more rows
…
Before we apply this function multiple times, we first introduce
ourselves with the `polite::bow` function. After that we apply the above
function to each edition. By doing this we automatically apply to the
scraping restrictions defined in `robots.txt`.

    df_stages_overview_raw <- map_df(
      so_paths, \(x) scrape_overview(cycling_stats_host, x, stages_urls_css))

The result looks like this:

    ## # A tibble: 817 × 3
    ##    href                             desc                                   url  
    ##    <chr>                            <chr>                                  <chr>
    ##  1 team/team-telekom-2000           Team Telekom                           http…
    ##  2 team/festina-lotus-2000          Festina - Lotus                        http…
    ##  3 team/festina-lotus-2000          Festina - Lotus                        http…
    ##  4 team/kelme-costa-blanca-2000     Kelme - Costa Blanca                   http…
    ##  5 team/polti-2000                  Polti                                  http…
    ##  6 team/kelme-costa-blanca-2000     Kelme - Costa Blanca                   http…
    ##  7 team/kelme-costa-blanca-2000     Kelme - Costa Blanca                   http…
    ##  8 team/banesto-2000                Banesto                                http…
    ##  9 team/mapei-quickstep-2000        Mapei - Quickstep                      http…
    ## 10 race/tour-de-france/2000/stage-1 Stage 1 (ITT) | Futuroscope - Futuros… http…
    ## # ℹ 807 more rows
…
    stages_itt <- function(df_stages_overview, time_trial_regex) {
      df_stages_overview |>
        filter(str_detect(desc, time_trial_regex)) |>
        distinct(href, .keep_all = TRUE) |>
        mutate(
          desc = str_remove_all(desc, str_glue("{time_trial_regex}|Stage|\\|")),
          desc = str_squish(desc),
          desc = str_glue("{desc} ({year})"))
    }

    df_stages_itt <- stages_itt(df_stages_overview, time_trial_regex)

    ## # A tibble: 42 × 5
    ##    href                              desc    url_stages_overview  year url_stage
    ##    <chr>                             <glue>  <chr>               <int> <glue>   
    ##  1 race/tour-de-france/2000/stage-1  1 Futu… https://www.procyc…  2000 https://…
    ##  2 race/tour-de-france/2000/stage-19 19 Fri… https://www.procyc…  2000 https://…
    ##  3 race/tour-de-france/2001/stage-11 11 Gre… https://www.procyc…  2001 https://…
    ##  4 race/tour-de-france/2001/stage-18 18 Mon… https://www.procyc…  2001 https://…
    ##  5 race/tour-de-france/2002/stage-9  9 Lane… https://www.procyc…  2002 https://…
    ##  6 race/tour-de-france/2002/stage-19 19 Reg… https://www.procyc…  2002 https://…
    ##  7 race/tour-de-france/2003/stage-12 12 Gai… https://www.procyc…  2003 https://…
    ##  8 race/tour-de-france/2003/stage-19 19 Por… https://www.procyc…  2003 https://…
    ##  9 race/tour-de-france/2004/stage-16 16 Bou… https://www.procyc…  2004 https://…
    ## 10 race/tour-de-france/2004/stage-19 19 Bes… https://www.procyc…  2004 https://…
    ## # ℹ 32 more rows
…
      html_nodes(stage_html, stage_tbl_css) |>
        html_table() |>
        first() |>
        clean_names() |>
        mutate(rnk = row_number(), url_stage = stage_url$url)
    }

Again, first `bow` to the host and then apply the function from the
above code chunk repeatedly.

    df_stage <- map_df(
      stages_paths,
      \(x) scrape_stage(cycling_stats_host, x, stage_tbl_css))

    ## # A tibble: 6,885 × 15
    ##      rnk    gc timelag   bib h2h   specialty rider   age team    uci   pnt x    
    ##    <int> <int> <chr>   <int> <lgl> <chr>     <chr> <int> <chr> <int> <int> <chr>
    ##  1     1     1 +0:00     127 NA    TT        MILL…    23 Cofi…    NA   100 <NA> 
    ##  2     2     2 +0:02       1 NA    TT        ARMS…    28 US P…    NA    NA <NA> 
    ##  3     3     3 +0:13      51 NA    Sprint    JALA…    31 O.N.…    NA    50 <NA> 
    ##  4     4     4 +0:14      61 NA    TT        ULLR…    26 Team…    NA    40 <NA> 
    ##  5     5     5 +0:17      52 NA    GC        CAÑA…    25 O.N.…    NA    32 <NA> 
    ##  6     6     6 +0:20      11 NA    TT        ZÜLL…    31 Bane…    NA    26 <NA> 
    ##  7     7     7 +0:21       3 NA    TT        EKIM…    34 US P…    NA    22 <NA> 
    ##  8     8     8 +0:27      72 NA    Classic   BORG…    31 Merc…    NA    18 <NA> 
    ##  9     9     9 +0:33       4 NA    TT        HAMI…    29 US P…    NA    14 <NA> 
    ## 10    10    10 +0:36      43 NA    TT        DEKK…    29 Rabo…    NA    10 <NA> 
    ## # ℹ 6,875 more rows
    ## # ℹ 3 more variables: time <chr>, avg <dbl>, url_stage <chr>
…
    time_delta <- function(df_stage) {
      df_stage |>
        transmute(
          url_stage, rider,
          time_delta = case_when(
            rnk == 1 ~ seconds(0),
            str_detect(time, ",") ~ ms(str_remove_all(time, ",")),
            TRUE ~ ms(str_sub(time, start = (str_length(time) / 2) + 1)))) |>
        filter(!is.na(time_delta), time_delta >= 0)
    }

    df_time_delta <- time_delta(df_stage)

    ## # A tibble: 6,866 × 3
    ##    url_stage                                                    rider time_delta
    ##    <chr>                                                        <chr> <Period>  
    ##  1 https://www.procyclingstats.com/race/tour-de-france/2000/st… MILL… 0S        
    ##  2 https://www.procyclingstats.com/race/tour-de-france/2000/st… ARMS… 2S        
    ##  3 https://www.procyclingstats.com/race/tour-de-france/2000/st… JALA… 13S       
    ##  4 https://www.procyclingstats.com/race/tour-de-france/2000/st… ULLR… 14S       
    ##  5 https://www.procyclingstats.com/race/tour-de-france/2000/st… CAÑA… 16S       
    ##  6 https://www.procyclingstats.com/race/tour-de-france/2000/st… ZÜLL… 20S       
    ##  7 https://www.procyclingstats.com/race/tour-de-france/2000/st… EKIM… 21S       
    ##  8 https://www.procyclingstats.com/race/tour-de-france/2000/st… BORG… 27S       
    ##  9 https://www.procyclingstats.com/race/tour-de-france/2000/st… HAMI… 33S       
    ## 10 https://www.procyclingstats.com/race/tour-de-france/2000/st… DEKK… 36S       
    ## # ℹ 6,856 more rows
…
